{
  "visual": {
    "name": "violinPlot",
    "displayName": "Violin Plot (1.3.0)",
    "guid": "violinPlot4D46EB9EB3A141D9BA2289793175D971",
    "visualClassName": "ViolinPlot",
    "version": "1.3.0.4",
    "description": "Use to visualise the distribution of your data.",
    "supportUrl": "https://bitbucket.org/dm-p/power-bi-visuals-violin-plot",
    "gitHubUrl": "https://bitbucket.org/dm-p/power-bi-visuals-violin-plot"
  },
  "apiVersion": "2.5.0",
  "author": {
    "name": "Daniel Marsh-Patrick",
    "email": "d.s.marsh@gmail.com"
  },
  "assets": {
    "icon": "assets/desktop_icon.png"
  },
  "externalJS": [
    "node_modules/powerbi-visuals-utils-dataviewutils/lib/index.js",
    "node_modules/globalize/lib/globalize.js",
    "node_modules/globalize/lib/cultures/globalize.cultures.js",
    "node_modules/powerbi-visuals-utils-typeutils/lib/index.js",
    "node_modules/powerbi-visuals-utils-svgutils/lib/index.js",
    "node_modules/powerbi-visuals-utils-formattingutils/lib/index.js",
    "node_modules/powerbi-visuals-utils-interactivityutils/lib/index.js",
    "node_modules/powerbi-visuals-utils-chartutils/lib/index.js",
    "node_modules/d3/d3.min.js",
    "node_modules/jquery/dist/jquery.slim.min.js",
    "node_modules/bootstrap/dist/js/bootstrap.bundle.min.js",
    "node_modules/powerbi-visuals-utils-tooltiputils/lib/index.js"
  ],
  "style": "style/visual.less",
  "capabilities": "capabilities.json"
}
